w,w,w,w,w,w,w,w,w,w,w,w,w,w,w,w,w,w,w
w,r,r,r,w,w,w,w,r,r,r,r,r,r,r,e4,r,r,w
w,r,r,r,w,w,w,w,r,r,r,r,r,r,r,r,r,s5,w
w,r,r,r,w,r,r,w,r,r,r,r,r,r,r,r,r,r,w
w,r,r,r,w,r,r,w,r,r,r,r,r,r,w,r,r,r,w
w,r,w,r,w,r,r,w,r,w,r,w,r,r,w,r,r,r,w
w,s10,w,e2,r,r,r,r,r,w,p,w,r,r,w,r,w,r,w
w,r,w,r,w,r,r,w,r,w,r,w,r,r,w,r,r,r,w
w,r,r,r,w,r,r,w,r,r,r,r,r,r,w,r,r,r,w
w,r,r,r,w,r,r,w,r,r,r,r,r,r,r,r,r,r,w
w,r,r,r,w,w,w,w,r,r,r,r,r,r,r,r,r,s5,w
w,r,r,r,w,w,w,w,r,r,r,r,r,r,r,r,r,r,w
w,w,w,w,w,w,w,w,w,w,w,w,w,w,w,w,w,w,w
